/Users/sam/Desktop/temp/java_maven/src/test/java/hello/TimeControllerIT.java
/Users/sam/Desktop/temp/java_maven/src/test/java/hello/HelloControllerIT.java
/Users/sam/Desktop/temp/java_maven/src/test/java/hello/HelloControllerTest.java
